{
  "nameCache:9": {
    "0:10": {
      "name:8": "Summpot",
      "isOP:1": 0,
      "uuid:8": "8a32b123-a0b5-4f41-8529-3b872ef8b3e4"
    },
    "1:10": {
      "name:8": "Interest_soul",
      "isOP:1": 0,
      "uuid:8": "73f8629c-5db7-4edb-bd6e-f776218a2277"
    }
  }
}